{
  "images" : [
    {
      "idiom" : "universal",
      "filename" : "family_parent_children_child_baby_couplewomen_men_man_single_parents_daughter_son_3-512.png",
      "scale" : "1x"
    },
    {
      "idiom" : "universal",
      "scale" : "2x"
    },
    {
      "idiom" : "universal",
      "scale" : "3x"
    }
  ],
  "info" : {
    "version" : 1,
    "author" : "xcode"
  }
}